…
## Value

A tibble with columns `time`, `surv` (survival probability), and a
column named after `covariate` containing the stratum labels.

## Examples

``` r
set.seed(20240429)
dat <- sim_data_se(n = 500)
dat_long <- get_ipcw_wgt_se(dat)
get_ipcw_km_prob_x_se(dat_long, pre_times = seq(0, 2429, 1))
#> # A tibble: 3,724 × 3
#>     time  surv x    
#>    <dbl> <dbl> <fct>
#>  1     0     1 x=0  
#>  2     1     1 x=0  
#>  3     2     1 x=0  
#>  4     3     1 x=0  
#>  5     4     1 x=0  
#>  6     5     1 x=0  
#>  7     6     1 x=0  
#>  8     7     1 x=0  
#>  9     8     1 x=0  
#> 10     9     1 x=0  
#> # ℹ 3,714 more rows
```
